
Запуск (rc :filename #P"C:/yar/приложения/стирлинг/m/mps-default.lisp" :no-of-circles 6)Запуск (CIRCLES 6 :DO-PLOTS T)
; compiling file "c:/yar/bin/постройка-образа/defun-to-file/!!m/!!vc1.lisp" (written 16 JAN 2018 12:15:01 AM):
; compiling (in-readtable nil)
; compiling (in-package "M")
; compiling (declaim (optimize # ...))
; compiling (defun vc1 ...)

; file: c:/yar/bin/постройка-образа/defun-to-file/!!m/!!vc1.lisp
; in: defun vc1
;     (* MPS:|*wTopClearance*| (M0:|CircleArea| MPS:|*wBore*|))
; 
; note: unable to
;   convert x*2^k to shift
; due to type uncertainty:
;   The first argument is a number, not a integer.
;   The second argument is a number, not a integer.
; 
; note: forced to do generic-* (cost 30)
;       unable to do #1=inline float arithmetic (cost 4) because:
;       The first argument is a t, not a (complex single-float).
;       The second argument is a t, not a single-float.
;       The result is a (values number . #2=(&optional)), not a (values
;                                                                (complex
;                                                                 single-float)
;                                                                &rest t).
;       unable to do #1# (cost 4) because:
;       The first argument is a t, not a single-float.
;       The second argument is a t, not a single-float.
;       The result is a (values number . #2#), not a (values single-float &rest t).
;       etc.
; 
; compilation unit finished
;   printed 2 notes


; c:/yar/bin/постройка-образа/defun-to-file/!!m/!!vc1.fasl written
; compilation finished in 0:00:00.016
; compiling file "c:/yar/bin/постройка-образа/defun-to-file/!!m/!!,dvc1.lisp" (written 16 JAN 2018 12:15:01 AM):
; compiling (in-readtable nil)
; compiling (in-package "M")
; compiling (declaim (optimize # ...))
; compiling (defun |dVC1| ...)

; file: c:/yar/bin/постройка-образа/defun-to-file/!!m/!!,dvc1.lisp
; in: defun |dVC1|
;     (* MPS:|*wTopClearance*| (M0:|CircleArea| MPS:|*wBore*|))
; 
; note: unable to
;   convert x*2^k to shift
; due to type uncertainty:
;   The first argument is a number, not a integer.
;   The second argument is a number, not a integer.
; 
; note: forced to do generic-* (cost 30)
;       unable to do #1=inline float arithmetic (cost 4) because:
;       The first argument is a t, not a (complex single-float).
;       The second argument is a t, not a single-float.
;       The result is a (values number . #2=(&optional)), not a (values
;                                                                (complex
;                                                                 single-float)
;                                                                &rest t).
;       unable to do #1# (cost 4) because:
;       The first argument is a t, not a single-float.
;       The second argument is a t, not a single-float.
;       The result is a (values number . #2#), not a (values single-float &rest t).
;       etc.
; 
; compilation unit finished
;   printed 2 notes


; c:/yar/bin/постройка-образа/defun-to-file/!!m/!!,dvc1.fasl written
; compilation finished in 0:00:00.016
; compiling file "c:/yar/bin/постройка-образа/defun-to-file/!!m/!!vc2.lisp" (written 16 JAN 2018 12:15:01 AM):
; compiling (in-readtable nil)
; compiling (in-package "M")
; compiling (declaim (optimize # ...))
; compiling (defun vc2 ...)

; file: c:/yar/bin/постройка-образа/defun-to-file/!!m/!!vc2.lisp
; in: defun vc2
;     (* MPS:|*dcoldClearance*| 0.0021205750411731105d0)
; 
; note: forced to do generic-* (cost 30)
;       unable to do #1=inline float arithmetic (cost 5) because:
;       The first argument is a t, not a (complex double-float).
;       The result is a (values number . #2=(&optional)), not a (values
;                                                                (complex
;                                                                 double-float)
;                                                                &rest t).
;       unable to do #1# (cost 5) because:
;       The first argument is a t, not a double-float.
;       The result is a (values number . #2#), not a (values double-float &rest t).

;     (* MPS:|*dStroke*| 0.0021205750411731105d0)
; 
; note: forced to do generic-* (cost 30)
;       unable to do #1=inline float arithmetic (cost 5) because:
;       The first argument is a t, not a (complex double-float).
;       The result is a (values number . #2=(&optional)), not a (values
;                                                                (complex
;                                                                 double-float)
;                                                                &rest t).
;       unable to do #1# (cost 5) because:
;       The first argument is a t, not a double-float.
;       The result is a (values number . #2#), not a (values double-float &rest t).

;     (- (M::|PistonPhaseShiftRadians|) PI)
; 
; note: forced to do generic-- (cost 10)
;       unable to do #1=inline float arithmetic (cost 2) because:
;       The first argument is a t, not a double-float.
;       The result is a (values number . #2=(&optional)), not a (values
;                                                                double-float
;                                                                &rest t).
;       unable to do #1# (cost 4) because:
;       The first argument is a t, not a (complex double-float).
;       The result is a (values number . #2#), not a (values
;                                                     (complex double-float)
;                                                     &rest t).
; 
; compilation unit finished
;   printed 3 notes


; c:/yar/bin/постройка-образа/defun-to-file/!!m/!!vc2.fasl written
; compilation finished in 0:00:00.000
; compiling file "c:/yar/bin/постройка-образа/defun-to-file/!!m/!!,dvc2.lisp" (written 16 JAN 2018 12:15:01 AM):
; compiling (in-readtable nil)
; compiling (in-package "M")
; compiling (declaim (optimize # ...))
; compiling (defun |dVC2| ...)

; file: c:/yar/bin/постройка-образа/defun-to-file/!!m/!!,dvc2.lisp
; in: defun |dVC2|
;     (* MPS:|*dcoldClearance*| 0.0021205750411731105d0)
; 
; note: forced to do generic-* (cost 30)
;       unable to do #1=inline float arithmetic (cost 5) because:
;       The first argument is a t, not a (complex double-float).
;       The result is a (values number . #2=(&optional)), not a (values
;                                                                (complex
;                                                                 double-float)
;                                                                &rest t).
;       unable to do #1# (cost 5) because:
;       The first argument is a t, not a double-float.
;       The result is a (values number . #2#), not a (values double-float &rest t).

;     (* MPS:|*dStroke*| 0.0021205750411731105d0)
; 
; note: forced to do generic-* (cost 30)
;       unable to do #1=inline float arithmetic (cost 5) because:
;       The first argument is a t, not a (complex double-float).
;       The result is a (values number . #2=(&optional)), not a (values
;                                                                (complex
;                                                                 double-float)
;                                                                &rest t).
;       unable to do #1# (cost 5) because:
;       The first argument is a t, not a double-float.
;       The result is a (values number . #2#), not a (values double-float &rest t).

;     (- (M::|PistonPhaseShiftRadians|) PI)
; 
; note: forced to do generic-- (cost 10)
;       unable to do #1=inline float arithmetic (cost 2) because:
;       The first argument is a t, not a double-float.
;       The result is a (values number . #2=(&optional)), not a (values
;                                                                double-float
;                                                                &rest t).
;       unable to do #1# (cost 4) because:
;       The first argument is a t, not a (complex double-float).
;       The result is a (values number . #2#), not a (values
;                                                     (complex double-float)
;                                                     &rest t).
; 
; compilation unit finished
;   printed 3 notes


; c:/yar/bin/постройка-образа/defun-to-file/!!m/!!,dvc2.fasl written
; compilation finished in 0:00:00.000
; compiling file "c:/yar/bin/постройка-образа/defun-to-file/!!m/!!vc.lisp" (written 16 JAN 2018 12:15:01 AM):
; compiling (in-readtable nil)
; compiling (in-package "M")
; compiling (declaim (optimize # ...))
; compiling (defun vc ...)

; file: c:/yar/bin/постройка-образа/defun-to-file/!!m/!!vc.lisp
; in: defun vc
;     (+ (M::VC1 M::TI) MPS:|*ColdCollectorVolume*| (M::VC2 M::TI))
; --> + 
; ==>
;   (+ (M::VC1 M::TI) MPS:|*ColdCollectorVolume*|)
; 
; note: forced to do generic-+ (cost 10)
;       unable to do #1=inline float arithmetic (cost 2) because:
;       The first argument is a t, not a double-float.
;       The second argument is a t, not a double-float.
;       The result is a (values number . #2=(&optional)), not a (values
;                                                                double-float
;                                                                &rest t).
;       unable to do #1# (cost 2) because:
;       The first argument is a t, not a single-float.
;       The second argument is a t, not a single-float.
;       The result is a (values number . #2#), not a (values single-float &rest t).
;       etc.

; ==>
;   (+ (+ (M::VC1 M::TI) MPS:|*ColdCollectorVolume*|) (M::VC2 M::TI))
; 
; note: forced to do generic-+ (cost 10)
;       unable to do #1=inline float arithmetic (cost 2) because:
;       The first argument is a number, not a double-float.
;       The second argument is a t, not a double-float.
;       The result is a (values number . #2=(&optional)), not a (values
;                                                                double-float
;                                                                &rest t).
;       unable to do #1# (cost 2) because:
;       The first argument is a number, not a single-float.
;       The second argument is a t, not a single-float.
;       The result is a (values number . #2#), not a (values single-float &rest t).
;       etc.
; 
; compilation unit finished
;   printed 2 notes


; c:/yar/bin/постройка-образа/defun-to-file/!!m/!!vc.fasl written
; compilation finished in 0:00:00.016
; compiling file "c:/yar/bin/постройка-образа/defun-to-file/!!m/!!,dvc.lisp" (written 16 JAN 2018 12:15:01 AM):
; compiling (in-readtable nil)
; compiling (in-package "M")
; compiling (declaim (optimize # ...))
; compiling (defun |dVC| ...)

; file: c:/yar/bin/постройка-образа/defun-to-file/!!m/!!,dvc.lisp
; in: defun |dVC|
;     (+ (M::|dVC1| M::TI) (M::|dVC2| M::TI))
; 
; note: forced to do generic-+ (cost 10)
;       unable to do #1=inline float arithmetic (cost 2) because:
;       The first argument is a t, not a double-float.
;       The second argument is a t, not a double-float.
;       The result is a (values number . #2=(&optional)), not a (values
;                                                                double-float
;                                                                &rest t).
;       unable to do #1# (cost 2) because:
;       The first argument is a t, not a single-float.
;       The second argument is a t, not a single-float.
;       The result is a (values number . #2#), not a (values single-float &rest t).
;       etc.
; 
; compilation unit finished
;   printed 1 note


; c:/yar/bin/постройка-образа/defun-to-file/!!m/!!,dvc.fasl written
; compilation finished in 0:00:00.000
; compiling file "c:/yar/bin/постройка-образа/defun-to-file/!!m/!vdisp!rod.lisp" (written 16 JAN 2018 12:15:01 AM):
; compiling (in-readtable nil)
; compiling (in-package "M")
; compiling (declaim (optimize # ...))
; compiling (defun |VdispRod| ...)

; file: c:/yar/bin/постройка-образа/defun-to-file/!!m/!vdisp!rod.lisp
; in: defun |VdispRod|
;     (* MPS:|*dStroke*| (M0:|CircleArea| MPS:|*dRodBore*|))
; 
; note: unable to
;   convert x*2^k to shift
; due to type uncertainty:
;   The first argument is a number, not a integer.
;   The second argument is a number, not a integer.
; 
; note: forced to do generic-* (cost 30)
;       unable to do #1=inline float arithmetic (cost 4) because:
;       The first argument is a t, not a (complex single-float).
;       The second argument is a t, not a single-float.
;       The result is a (values number . #2=(&optional)), not a (values
;                                                                (complex
;                                                                 single-float)
;                                                                &rest t).
;       unable to do #1# (cost 4) because:
;       The first argument is a t, not a single-float.
;       The second argument is a t, not a single-float.
;       The result is a (values number . #2#), not a (values single-float &rest t).
;       etc.
; 
; compilation unit finished
;   printed 2 notes


; c:/yar/bin/постройка-образа/defun-to-file/!!m/!vdisp!rod.fasl written
; compilation finished in 0:00:00.000
; compiling file "c:/yar/bin/постройка-образа/defun-to-file/!!m/d!vdisp!rod.lisp" (written 16 JAN 2018 12:15:01 AM):
; compiling (in-readtable nil)
; compiling (in-package "M")
; compiling (declaim (optimize # ...))
; compiling (defun |dVdispRod| ...)

; file: c:/yar/bin/постройка-образа/defun-to-file/!!m/d!vdisp!rod.lisp
; in: defun |dVdispRod|
;     (* MPS:|*dStroke*| (M0:|CircleArea| MPS:|*dRodBore*|))
; 
; note: unable to
;   convert x*2^k to shift
; due to type uncertainty:
;   The first argument is a number, not a integer.
;   The second argument is a number, not a integer.
; 
; note: forced to do generic-* (cost 30)
;       unable to do #1=inline float arithmetic (cost 4) because:
;       The first argument is a t, not a (complex single-float).
;       The second argument is a t, not a single-float.
;       The result is a (values number . #2=(&optional)), not a (values
;                                                                (complex
;                                                                 single-float)
;                                                                &rest t).
;       unable to do #1# (cost 4) because:
;       The first argument is a t, not a single-float.
;       The second argument is a t, not a single-float.
;       The result is a (values number . #2#), not a (values single-float &rest t).
;       etc.
; 
; compilation unit finished
;   printed 2 notes


; c:/yar/bin/постройка-образа/defun-to-file/!!m/d!vdisp!rod.fasl written
; compilation finished in 0:00:00.000
; compiling file "c:/yar/bin/постройка-образа/defun-to-file/!!m/!!ve.lisp" (written 16 JAN 2018 12:15:01 AM):
; compiling (in-readtable nil)
; compiling (in-package "M")
; compiling (declaim (optimize # ...))
; compiling (defun ve ...)

; c:/yar/bin/постройка-образа/defun-to-file/!!m/!!ve.fasl written
; compilation finished in 0:00:00.000
; compiling file "c:/yar/bin/постройка-образа/defun-to-file/!!m/!!,dve.lisp" (written 16 JAN 2018 12:15:01 AM):
; compiling (in-readtable nil)
; compiling (in-package "M")
; compiling (declaim (optimize # ...))
; compiling (defun |dVE| ...)

; c:/yar/bin/постройка-образа/defun-to-file/!!m/!!,dve.fasl written
; compilation finished in 0:00:00.000
; compiling file "c:/yar/bin/постройка-образа/defun-to-file/!!m/!v!crankcase.lisp" (written 16 JAN 2018 12:15:01 AM):
; compiling (in-readtable nil)
; compiling (in-package "M")
; compiling (declaim (optimize # ...))
; compiling (defun |VCrankcase| ...)

; file: c:/yar/bin/постройка-образа/defun-to-file/!!m/!v!crankcase.lisp
; in: defun |VCrankcase|
;     (- MPS:|*CrankcaseMaximumVolume*| (M::VC M::TI) (M::VE M::TI))
; --> - 
; ==>
;   (- MPS:|*CrankcaseMaximumVolume*| (M::VC M::TI))
; 
; note: forced to do generic-- (cost 10)
;       unable to do #1=inline float arithmetic (cost 2) because:
;       The first argument is a t, not a double-float.
;       The second argument is a t, not a double-float.
;       The result is a (values number . #2=(&optional)), not a (values
;                                                                double-float
;                                                                &rest t).
;       unable to do #1# (cost 2) because:
;       The first argument is a t, not a single-float.
;       The second argument is a t, not a single-float.
;       The result is a (values number . #2#), not a (values single-float &rest t).
;       etc.

; ==>
;   (- (- MPS:|*CrankcaseMaximumVolume*| (M::VC M::TI)) (M::VE M::TI))
; 
; note: forced to do generic-- (cost 10)
;       unable to do #1=inline float arithmetic (cost 2) because:
;       The first argument is a number, not a double-float.
;       The second argument is a t, not a double-float.
;       The result is a (values number . #2=(&optional)), not a (values
;                                                                double-float
;                                                                &rest t).
;       unable to do #1# (cost 2) because:
;       The first argument is a number, not a single-float.
;       The second argument is a t, not a single-float.
;       The result is a (values number . #2#), not a (values single-float &rest t).
;       etc.
; 
; compilation unit finished
;   printed 2 notes


; c:/yar/bin/постройка-образа/defun-to-file/!!m/!v!crankcase.fasl written
; compilation finished in 0:00:00.000
; compiling file "c:/yar/bin/постройка-образа/defun-to-file/!!m/d!v!crankcase.lisp" (written 16 JAN 2018 12:15:01 AM):
; compiling (in-readtable nil)
; compiling (in-package "M")
; compiling (declaim (optimize # ...))
; compiling (defun |dVCrankcase| ...)

; file: c:/yar/bin/постройка-образа/defun-to-file/!!m/d!v!crankcase.lisp
; in: defun |dVCrankcase|
;     (- (+ (M::|dVC| M::TI) (M::|dVE| M::TI)))
; ==>
;   (SB-KERNEL:%NEGATE (THE NUMBER (+ (M::|dVC| M::TI) (M::|dVE| M::TI))))
; 
; note: unable to
;   Eliminate %negate/%negate of rationals
; due to type uncertainty:
;   The first argument is a number, not a rational.

;     (+ (M::|dVC| M::TI) (M::|dVE| M::TI))
; 
; note: forced to do generic-+ (cost 10)
;       unable to do #1=inline float arithmetic (cost 2) because:
;       The first argument is a t, not a double-float.
;       The second argument is a t, not a double-float.
;       The result is a (values number . #2=(&optional)), not a (values
;                                                                double-float
;                                                                &rest t).
;       unable to do #1# (cost 2) because:
;       The first argument is a t, not a single-float.
;       The second argument is a t, not a single-float.
;       The result is a (values number . #2#), not a (values single-float &rest t).
;       etc.

;     (- (+ (M::|dVC| M::TI) (M::|dVE| M::TI)))
; ==>
;   (SB-KERNEL:%NEGATE (THE NUMBER (+ (M::|dVC| M::TI) (M::|dVE| M::TI))))
; 
; note: forced to do generic-negate (cost 10)
;       unable to do #1=inline float arithmetic (cost 1) because:
;       The first argument is a number, not a (complex single-float).
;       The result is a (values number . #2=(&optional)), not a (values
;                                                                (complex
;                                                                 single-float)
;                                                                &rest t).
;       unable to do #1# (cost 1) because:
;       The first argument is a number, not a (complex double-float).
;       The result is a (values number . #2#), not a (values
;                                                     (complex double-float)
;                                                     &rest t).
;       etc.
; 
; compilation unit finished
;   printed 3 notes


; c:/yar/bin/постройка-образа/defun-to-file/!!m/d!v!crankcase.fasl written
; compilation finished in 0:00:00.015
WARNING:
   hxNuChannelsInner: формула верна только при условии, что длина/гидр.диаметр = 40
WARNING:
   При расчёте сопротивления канала относительной глубиной более 8 берём данные для глубины 8
185
ThisControlCriteria = 788.1658218303493
104ThisControlCriteria = 1313.5808530292597
221ThisControlCriteria = 822.0308335728238
124ThisControlCriteria = 3143.230062164006
252ThisControlCriteria = 860.1607418866369
BestControlCriteria = 788.1658218303493
*Xi1* = 5.99856999544784e-5
.81ThisControlCriteria = 307.47846532032173
65ThisControlCriteria = 780.1908631608986
181BestControlCriteria = 175.74476461116274
*Xi1* = 1.799570998634352e-4
.67.69.69.69.69.69.69.69.69.69.69.70.70.70.70.70.71.70.71.71.71.71.72.71.72.72.71.72.72.71.72.72.72.71.70.71.71.71.71.70.71.72.74.68.68.69.67.65.67.68.68.68.68.68.68.69.68.68.68.68.68.68.68.68.68.68.68.67.68.67.67.67.67.67.67.68.67.67.67.67.67.67.67.67.67.67.67.67.67.67.67.67.67.67.67.67.67.67.67.67.67.67.67.67.67.68.68.68.68.68.68.68.68.68.68.68.68.68.68.69.68.69.69.69.69.69.69.69.70.70.70.70.70.70.71.71.71.70.71.71.72.72.72.73.73.73.73.73.74.73.74.75.75.75.75.76.75.76.77.77.77.77.78.79.78.79.79.79.80.79.80.81.80.80.82.83.82.82.82.82.82.82.82.82.82.82.82.81.82.82.81.81.81.80.79.81.80.79.79.79.78.78.79.78.78.77.77.76.76.76.76.75.75.74.75.74.73.74.73.72.73.72.72.72.72.71.71.71.71.71.71.71.70.70.70.70.70.70.70.
*GrossEfficiency* = 0.21674824588220565

; file: c:/yar/bin/постройка-образа/defun-to-file/!!m/!volume!for!maxovik.lisp
; in: defun |VolumeForMaxovik|
;     (+ (M::VC1 M::TI) (M::|VdispRod| M::TI))
; 
; note: forced to do generic-+ (cost 10)
;       unable to do #1=inline float arithmetic (cost 2) because:
;       The first argument is a t, not a double-float.
;       The second argument is a t, not a double-float.
;       The result is a (values number . #2=(&optional)), not a (values
;                                                                double-float
;                                                                &rest t).
;       unable to do #1# (cost 2) because:
;       The first argument is a t, not a single-float.
;       The second argument is a t, not a single-float.
;       The result is a (values number . #2#), not a (values single-float &rest t).
;       etc.
; 
; compilation unit finished
;   printed 1 note

; file: c:/yar/bin/постройка-образа/defun-to-file/!!m/d!volume!for!maxovik.lisp
; in: defun |dVolumeForMaxovik|
;     (+ (M::|dVC1| M::TI) (M::|dVdispRod| M::TI))
; 
; note: forced to do generic-+ (cost 10)
;       unable to do #1=inline float arithmetic (cost 2) because:
;       The first argument is a t, not a double-float.
;       The second argument is a t, not a double-float.
;       The result is a (values number . #2=(&optional)), not a (values
;                                                                double-float
;                                                                &rest t).
;       unable to do #1# (cost 2) because:
;       The first argument is a t, not a single-float.
;       The second argument is a t, not a single-float.
;       The result is a (values number . #2#), not a (values single-float &rest t).
;       etc.
; 
; compilation unit finished
;   printed 1 note
*CircleNumber* = 0

WARNING:
   При расчёте сопротивления канала(-ов) в не-ламинарном режиме полагаем отношение длины к гидр. диаметру = 40
WARNING:
   При расчёте сопротивления канала относительно глубиной более 8 берём данные для глубины 8
(/ *StatAveragePressure* [Bar]) = 8.701718332393668

*StatPowerSimple* = 46.50785947237818
*NetEfficiency* = 0.09237989913983362
(|^| (M0::[IMPLEMENTATION] *Cells* |+R1|) "LeftOutT") = 563.0
(|^| (M0::[IMPLEMENTATION] *Cells* |+R2|) "RightOutT") = 313.0

Update *CrankcaseInitialPressureFactor* to 0.7947347012268642
WARNING:
   hxNuChannelsInner: формула верна только при условии, что длина/гидр.диаметр = 40
WARNING:
   При расчёте сопротивления канала относительной глубиной более 8 берём данные для глубины 8
71.69.69.69.70.70.69.70.69.70.70.70.71.71.72.72.72.72.73.73.73.73.73.74.73.74.74.74.74.74.74.72.73.73.73.74.73.72.72.72.72.72.72.77.74.69.69.69.70.67.69.68.69.69.69.68.69.68.68.68.68.68.68.68.68.68.68.68.68.68.67.68.68.68.68.68.67.67.67.67.67.67.67.67.67.67.67.67.67.67.67.67.67.67.67.67.68.67.67.67.67.67.67.68.68.68.67.68.68.68.68.68.68.68.68.68.68.68.68.68.69.69.68.69.69.69.69.70.70.68.70.69.70.70.70.71.71.71.71.71.71.72.72.72.73.73.73.74.74.73.74.75.74.75.75.76.76.76.76.76.77.77.77.77.79.79.79.79.79.79.80.79.81.81.80.81.81.82.82.82.83.82.82.82.82.82.82.82.82.82.81.81.81.81.81.81.80.80.80.79.79.79.78.78.78.77.77.77.76.76.76.76.75.75.75.75.74.74.73.73.72.73.73.72.72.72.71.71.71.70.71.70.70.70.70.70.70.70.70.69.70.
*GrossEfficiency* = 0.24718057038334001

; file: c:/yar/bin/постройка-образа/defun-to-file/!!m/!volume!for!maxovik.lisp
; in: defun |VolumeForMaxovik|
;     (+ (M::VC1 M::TI) (M::|VdispRod| M::TI))
; 
; note: forced to do generic-+ (cost 10)
;       unable to do #1=inline float arithmetic (cost 2) because:
;       The first argument is a t, not a double-float.
;       The second argument is a t, not a double-float.
;       The result is a (values number . #2=(&optional)), not a (values
;                                                                double-float
;                                                                &rest t).
;       unable to do #1# (cost 2) because:
;       The first argument is a t, not a single-float.
;       The second argument is a t, not a single-float.
;       The result is a (values number . #2#), not a (values single-float &rest t).
;       etc.
; 
; compilation unit finished
;   printed 1 note

; file: c:/yar/bin/постройка-образа/defun-to-file/!!m/d!volume!for!maxovik.lisp
; in: defun |dVolumeForMaxovik|
;     (+ (M::|dVC1| M::TI) (M::|dVdispRod| M::TI))
; 
; note: forced to do generic-+ (cost 10)
;       unable to do #1=inline float arithmetic (cost 2) because:
;       The first argument is a t, not a double-float.
;       The second argument is a t, not a double-float.
;       The result is a (values number . #2=(&optional)), not a (values
;                                                                double-float
;                                                                &rest t).
;       unable to do #1# (cost 2) because:
;       The first argument is a t, not a single-float.
;       The second argument is a t, not a single-float.
;       The result is a (values number . #2#), not a (values single-float &rest t).
;       etc.
; 
; compilation unit finished
;   printed 1 note
*CircleNumber* = 1

WARNING:
   При расчёте сопротивления канала(-ов) в не-ламинарном режиме полагаем отношение длины к гидр. диаметру = 40
WARNING:
   При расчёте сопротивления канала относительно глубиной более 8 берём данные для глубины 8
(/ *StatAveragePressure* [Bar]) = 8.748287619339525

*StatPowerSimple* = 56.42516236635978
*NetEfficiency* = 0.11442036041679211
(|^| (M0::[IMPLEMENTATION] *Cells* |+R1|) "LeftOutT") = 552.4265620778548
(|^| (M0::[IMPLEMENTATION] *Cells* |+R2|) "RightOutT") = 316.8673169253726

Update *CrankcaseInitialPressureFactor* to 0.7944697139832945
WARNING:
   hxNuChannelsInner: формула верна только при условии, что длина/гидр.диаметр = 40
WARNING:
   При расчёте сопротивления канала относительной глубиной более 8 берём данные для глубины 8
70.69.70.69.70.70.69.70.70.70.71.71.71.72.72.72.72.73.73.74.73.74.74.74.74.75.75.75.75.75.75.73.73.73.74.74.73.73.73.72.72.72.72.76.72.69.70.70.68.67.69.69.69.68.69.68.68.69.68.69.68.68.68.68.68.68.68.68.68.68.68.68.67.68.68.67.68.68.67.68.67.68.68.67.68.67.67.67.67.67.67.67.67.67.68.67.66.68.67.67.67.68.67.67.67.68.68.67.68.68.68.68.67.68.68.68.68.68.68.68.69.69.68.69.69.69.70.69.70.69.70.70.70.70.70.71.71.71.71.71.71.72.72.72.72.73.73.73.73.73.74.74.75.75.75.76.76.75.76.76.77.77.77.77.78.79.79.79.79.79.80.79.81.81.81.80.82.82.81.82.82.82.82.81.82.82.82.82.81.81.81.80.81.81.80.80.80.80.79.79.79.79.78.78.77.77.77.77.76.76.76.75.75.75.74.74.74.74.74.73.73.72.72.72.72.71.71.71.71.71.71.70.70.71.70.70.70.70.70.69.70.
*GrossEfficiency* = 0.242009162990058

; file: c:/yar/bin/постройка-образа/defun-to-file/!!m/!volume!for!maxovik.lisp
; in: defun |VolumeForMaxovik|
;     (+ (M::VC1 M::TI) (M::|VdispRod| M::TI))
; 
; note: forced to do generic-+ (cost 10)
;       unable to do #1=inline float arithmetic (cost 2) because:
;       The first argument is a t, not a double-float.
;       The second argument is a t, not a double-float.
;       The result is a (values number . #2=(&optional)), not a (values
;                                                                double-float
;                                                                &rest t).
;       unable to do #1# (cost 2) because:
;       The first argument is a t, not a single-float.
;       The second argument is a t, not a single-float.
;       The result is a (values number . #2#), not a (values single-float &rest t).
;       etc.
; 
; compilation unit finished
;   printed 1 note

; file: c:/yar/bin/постройка-образа/defun-to-file/!!m/d!volume!for!maxovik.lisp
; in: defun |dVolumeForMaxovik|
;     (+ (M::|dVC1| M::TI) (M::|dVdispRod| M::TI))
; 
; note: forced to do generic-+ (cost 10)
;       unable to do #1=inline float arithmetic (cost 2) because:
;       The first argument is a t, not a double-float.
;       The second argument is a t, not a double-float.
;       The result is a (values number . #2=(&optional)), not a (values
;                                                                double-float
;                                                                &rest t).
;       unable to do #1# (cost 2) because:
;       The first argument is a t, not a single-float.
;       The second argument is a t, not a single-float.
;       The result is a (values number . #2#), not a (values single-float &rest t).
;       etc.
; 
; compilation unit finished
;   printed 1 note
*CircleNumber* = 2

WARNING:
   При расчёте сопротивления канала(-ов) в не-ламинарном режиме полагаем отношение длины к гидр. диаметру = 40
WARNING:
   При расчёте сопротивления канала относительно глубиной более 8 берём данные для глубины 8
(/ *StatAveragePressure* [Bar]) = 8.749498336937823

*StatPowerSimple* = 55.813950374714295
*NetEfficiency* = 0.11435635079763903
(|^| (M0::[IMPLEMENTATION] *Cells* |+R1|) "LeftOutT") = 549.820681936002
(|^| (M0::[IMPLEMENTATION] *Cells* |+R2|) "RightOutT") = 319.63149094442815

Update *CrankcaseInitialPressureFactor* to 0.7971730457760687
WARNING:
   hxNuChannelsInner: формула верна только при условии, что длина/гидр.диаметр = 40
WARNING:
   При расчёте сопротивления канала относительной глубиной более 8 берём данные для глубины 8
70.69.69.69.69.70.70.70.70.71.71.72.71.72.72.72.73.74.73.74.74.74.74.74.75.75.75.75.75.75.75.74.73.74.73.75.73.72.73.72.72.72.72.76.72.70.69.70.69.68.69.69.68.69.69.69.69.69.68.68.68.68.68.68.68.68.68.68.68.68.68.68.68.67.68.68.68.67.67.67.67.68.67.67.67.67.68.67.67.67.67.67.67.67.68.67.67.67.68.68.67.68.67.67.68.68.67.68.68.68.68.68.68.68.68.68.68.68.68.68.68.69.69.68.69.69.69.69.69.70.70.70.70.70.70.71.71.71.71.72.71.72.72.72.72.73.73.73.74.74.74.74.74.76.75.76.75.76.76.76.77.77.77.77.78.79.79.79.80.79.79.79.81.81.81.80.81.82.82.81.82.82.81.82.82.81.82.81.81.82.81.81.81.80.80.80.80.80.79.80.79.79.78.78.78.77.77.77.76.76.76.76.75.75.74.74.74.74.73.73.72.73.72.72.72.72.72.71.71.71.70.70.70.70.70.70.69.70.69.70.69.
*GrossEfficiency* = 0.2376956410073817

; file: c:/yar/bin/постройка-образа/defun-to-file/!!m/!volume!for!maxovik.lisp
; in: defun |VolumeForMaxovik|
;     (+ (M::VC1 M::TI) (M::|VdispRod| M::TI))
; 
; note: forced to do generic-+ (cost 10)
;       unable to do #1=inline float arithmetic (cost 2) because:
;       The first argument is a t, not a double-float.
;       The second argument is a t, not a double-float.
;       The result is a (values number . #2=(&optional)), not a (values
;                                                                double-float
;                                                                &rest t).
;       unable to do #1# (cost 2) because:
;       The first argument is a t, not a single-float.
;       The second argument is a t, not a single-float.
;       The result is a (values number . #2#), not a (values single-float &rest t).
;       etc.
; 
; compilation unit finished
;   printed 1 note

; file: c:/yar/bin/постройка-образа/defun-to-file/!!m/d!volume!for!maxovik.lisp
; in: defun |dVolumeForMaxovik|
;     (+ (M::|dVC1| M::TI) (M::|dVdispRod| M::TI))
; 
; note: forced to do generic-+ (cost 10)
;       unable to do #1=inline float arithmetic (cost 2) because:
;       The first argument is a t, not a double-float.
;       The second argument is a t, not a double-float.
;       The result is a (values number . #2=(&optional)), not a (values
;                                                                double-float
;                                                                &rest t).
;       unable to do #1# (cost 2) because:
;       The first argument is a t, not a single-float.
;       The second argument is a t, not a single-float.
;       The result is a (values number . #2#), not a (values single-float &rest t).
;       etc.
; 
; compilation unit finished
;   printed 1 note
*CircleNumber* = 3

WARNING:
   При расчёте сопротивления канала(-ов) в не-ламинарном режиме полагаем отношение длины к гидр. диаметру = 40
WARNING:
   При расчёте сопротивления канала относительно глубиной более 8 берём данные для глубины 8
(/ *StatAveragePressure* [Bar]) = 8.72588229121136

*StatPowerSimple* = 54.7964469424649
*NetEfficiency* = 0.11321587923855879
(|^| (M0::[IMPLEMENTATION] *Cells* |+R1|) "LeftOutT") = 548.9167235366148
(|^| (M0::[IMPLEMENTATION] *Cells* |+R2|) "RightOutT") = 320.90056926829646

Update *CrankcaseInitialPressureFactor* to 0.800057013652494
WARNING:
   hxNuChannelsInner: формула верна только при условии, что длина/гидр.диаметр = 40
WARNING:
   При расчёте сопротивления канала относительной глубиной более 8 берём данные для глубины 8
70.69.70.69.69.69.70.70.71.70.71.71.72.72.72.72.73.73.73.74.74.74.75.75.75.75.75.75.75.76.75.74.73.74.73.76.74.72.73.73.72.72.73.76.72.70.70.70.67.69.69.69.68.69.68.69.69.69.68.68.68.68.68.68.68.68.68.68.68.68.67.68.68.68.68.67.68.67.68.67.67.67.67.68.67.67.67.67.67.67.67.67.67.67.67.67.68.68.67.67.67.68.68.68.67.68.67.68.68.68.68.68.68.68.68.68.68.68.68.69.68.68.68.69.69.69.69.70.70.70.70.70.70.70.70.71.71.71.71.71.71.71.72.72.72.73.73.72.73.73.74.74.75.75.75.75.76.76.76.76.77.77.77.77.78.78.79.79.79.80.79.79.82.81.81.80.81.82.82.82.82.82.82.82.81.82.82.81.81.82.82.81.81.80.81.80.80.80.79.79.79.79.78.78.78.78.77.76.77.76.75.76.75.74.74.74.74.74.73.73.73.73.72.72.72.71.71.71.70.71.71.70.70.70.70.70.70.70.69.69.70.
*GrossEfficiency* = 0.23543214113998856

; file: c:/yar/bin/постройка-образа/defun-to-file/!!m/!volume!for!maxovik.lisp
; in: defun |VolumeForMaxovik|
;     (+ (M::VC1 M::TI) (M::|VdispRod| M::TI))
; 
; note: forced to do generic-+ (cost 10)
;       unable to do #1=inline float arithmetic (cost 2) because:
;       The first argument is a t, not a double-float.
;       The second argument is a t, not a double-float.
;       The result is a (values number . #2=(&optional)), not a (values
;                                                                double-float
;                                                                &rest t).
;       unable to do #1# (cost 2) because:
;       The first argument is a t, not a single-float.
;       The second argument is a t, not a single-float.
;       The result is a (values number . #2#), not a (values single-float &rest t).
;       etc.
; 
; compilation unit finished
;   printed 1 note

; file: c:/yar/bin/постройка-образа/defun-to-file/!!m/d!volume!for!maxovik.lisp
; in: defun |dVolumeForMaxovik|
;     (+ (M::|dVC1| M::TI) (M::|dVdispRod| M::TI))
; 
; note: forced to do generic-+ (cost 10)
;       unable to do #1=inline float arithmetic (cost 2) because:
;       The first argument is a t, not a double-float.
;       The second argument is a t, not a double-float.
;       The result is a (values number . #2=(&optional)), not a (values
;                                                                double-float
;                                                                &rest t).
;       unable to do #1# (cost 2) because:
;       The first argument is a t, not a single-float.
;       The second argument is a t, not a single-float.
;       The result is a (values number . #2#), not a (values single-float &rest t).
;       etc.
; 
; compilation unit finished
;   printed 1 note
*CircleNumber* = 4

WARNING:
   При расчёте сопротивления канала(-ов) в не-ламинарном режиме полагаем отношение длины к гидр. диаметру = 40
WARNING:
   При расчёте сопротивления канала относительно глубиной более 8 берём данные для глубины 8
(/ *StatAveragePressure* [Bar]) = 8.700593887343254

*StatPowerSimple* = 54.02501837966486
*NetEfficiency* = 0.11234846595238512
(|^| (M0::[IMPLEMENTATION] *Cells* |+R1|) "LeftOutT") = 548.5652184512066
(|^| (M0::[IMPLEMENTATION] *Cells* |+R2|) "RightOutT") = 321.42473211234346

Update *CrankcaseInitialPressureFactor* to 0.8026086746323279
WARNING:
   hxNuChannelsInner: формула верна только при условии, что длина/гидр.диаметр = 40
WARNING:
   При расчёте сопротивления канала относительной глубиной более 8 берём данные для глубины 8
70.69.70.69.69.69.70.70.71.70.71.71.72.72.72.73.73.74.74.74.74.74.74.75.75.75.75.75.75.75.75.74.73.74.74.77.73.73.73.73.72.72.72.76.72.69.70.70.67.69.69.69.69.69.68.69.68.68.68.68.68.68.69.68.68.68.68.68.68.68.68.68.68.68.68.68.68.68.68.67.67.67.67.68.67.67.67.67.67.67.68.67.67.67.67.67.67.67.68.67.68.67.67.68.67.68.68.68.67.68.68.68.68.68.68.68.68.68.69.68.69.68.68.69.69.69.69.69.69.69.70.70.70.70.70.71.70.71.71.71.72.72.72.72.73.73.73.73.74.74.74.74.75.75.75.76.75.76.76.76.77.77.77.77.78.79.79.79.79.79.79.80.81.80.80.80.81.81.82.82.82.83.81.82.82.82.82.81.81.81.81.81.81.81.80.80.80.80.79.79.80.78.78.78.78.78.77.77.76.76.76.75.75.75.75.74.74.73.73.73.73.72.72.72.72.72.71.71.71.71.71.70.70.70.70.70.70.70.69.70.70.
*GrossEfficiency* = 0.23429260160535295
; compiling file "c:/yar/bin/постройка-образа/defun-to-file/!!m/!volume!for!maxovik.lisp" (written 16 JAN 2018 12:20:37 AM):
; compiling (in-readtable nil)
; compiling (in-package "M")
; compiling (declaim (optimize # ...))
; compiling (defun |VolumeForMaxovik| ...)

; file: c:/yar/bin/постройка-образа/defun-to-file/!!m/!volume!for!maxovik.lisp
; in: defun |VolumeForMaxovik|
;     (+ (M::VC1 M::TI) (M::|VdispRod| M::TI))
; 
; note: forced to do generic-+ (cost 10)
;       unable to do #1=inline float arithmetic (cost 2) because:
;       The first argument is a t, not a double-float.
;       The second argument is a t, not a double-float.
;       The result is a (values number . #2=(&optional)), not a (values
;                                                                double-float
;                                                                &rest t).
;       unable to do #1# (cost 2) because:
;       The first argument is a t, not a single-float.
;       The second argument is a t, not a single-float.
;       The result is a (values number . #2#), not a (values single-float &rest t).
;       etc.
; 
; compilation unit finished
;   printed 1 note


; c:/yar/bin/постройка-образа/defun-to-file/!!m/!volume!for!maxovik.fasl written
; compilation finished in 0:00:00.000
; compiling file "c:/yar/bin/постройка-образа/defun-to-file/!!m/d!volume!for!maxovik.lisp" (written 16 JAN 2018 12:20:37 AM):
; compiling (in-readtable nil)
; compiling (in-package "M")
; compiling (declaim (optimize # ...))
; compiling (defun |dVolumeForMaxovik| ...)

; file: c:/yar/bin/постройка-образа/defun-to-file/!!m/d!volume!for!maxovik.lisp
; in: defun |dVolumeForMaxovik|
;     (+ (M::|dVC1| M::TI) (M::|dVdispRod| M::TI))
; 
; note: forced to do generic-+ (cost 10)
;       unable to do #1=inline float arithmetic (cost 2) because:
;       The first argument is a t, not a double-float.
;       The second argument is a t, not a double-float.
;       The result is a (values number . #2=(&optional)), not a (values
;                                                                double-float
;                                                                &rest t).
;       unable to do #1# (cost 2) because:
;       The first argument is a t, not a single-float.
;       The second argument is a t, not a single-float.
;       The result is a (values number . #2#), not a (values single-float &rest t).
;       etc.
; 
; compilation unit finished
;   printed 1 note


; c:/yar/bin/постройка-образа/defun-to-file/!!m/d!volume!for!maxovik.fasl written
; compilation finished in 0:00:00.016
*CircleNumber* = 5

(/ regenWallThickness [MM]) = 0.7
(/ dispWallThickness [MM]) = 0.7
(RegenMatrixHeatConductionLossPower) = ((|+R1| 1.4566048044417077)
                                        (|+R2| 1.2409869474012798))


{ AdiabStat 
*StatRegen* = #(NIL NIL
                #S(StatRegenRec
                   :regEffect 0.9758375739132958
                   :regEnthalpyLoss 17.845246269437393
                   :regEntropyCreation 8766.157989010848)
                #S(StatRegenRec
                   :regEffect 0.9793555180986702
                   :regEnthalpyLoss 12.683976951848106
                   :regEntropyCreation 4649.047444226174)
                NIL NIL NIL)

WARNING:
   При расчёте сопротивления канала(-ов) в не-ламинарном режиме полагаем отношение длины к гидр. диаметру = 40
WARNING:
   При расчёте сопротивления канала относительно глубиной более 8 берём данные для глубины 8
GasFrictionLoss = 7.842304768593284
StatFlowFriction1 = (0.0 1.1842717394141011 2.80472436495057 2.5936114928445146
                     0.8986672761659987 0.3610298952180988 0.0)
(CrankcasePumpingLossBuddenPower) = 16.308260796446508
wallLeakage = 26.310838473814517
(ShuttleLossesBudden) = 14.574464262096848
(AppendixPumpingLossBudden) = 9.548248899171327
(RegenMatrixHeatConductionLossPower) = ((|+R1| 1.4566048044417077)
                                        (|+R2| 1.2409869474012798))
(PistonRingFrictionPower) = 15.297846417404468
(CrossheadFrictionPower) = 3.7760239986893067
(BearingFrictionPower) = 12.443986952724586
(StatInertia) = ((maxPistonSpeed) = 1.5707963267948966)

dispRodPower = 85.350383453638
workPower = 21.093326221498703
Comp/exp-work-on-power-cylinder = (-4.271974561908592 5.5536031708759905
                                   0.7692257495658908)
Comp/exp-work-on-disp-rod = (-9.607416470317833e-4 5.1219837488653095
                             1.8757217791731958e-4)
Comp/exp-work = (-2.3730919669663963 8.77574358315206 0.2704149163521973)
(WorkabilityRatioByMechLossGamma) = 0.3607010433865066
(maxovikMass) = 0.04328000765732857
(/ (vSwept +E) [CM3]) = 84.81331159835939
(/ (vSwept +C) [CM3]) = 89.95810165992165
Вредное пр-во в полости 0, см3 = 36.681834250835806
Вредное пр-во в полости 1, см3 = 14.56546491899799
Вредное пр-во в полости 2, см3 = 47.470346477136204
Вредное пр-во в полости 3, см3 = 47.470346477136204
Вредное пр-во в полости 4, см3 = 19.368969307178194
Вредное пр-во в полости 5, см3 = 33.87935047851587
Вредное пр-во в полости 6, см3 = 1208.5253379754852
(phaseAngleForMatlab) = 135.0f0
(/ *StatAveragePressure* [Bar]) = 8.678217840415277
(/ *StatMaximumPressure* *StatMinimumPressure*) = 1.4371451086070985

*StatPowerSimple* = 53.46293516029287
*GrossEfficiency* = 0.23429260160535295
TotalHeatIn = 478.4532996641149
*NetEfficiency* = 0.11174117766106967
(|^| (M0::[IMPLEMENTATION] *Cells* |+R1|) "LeftOutT") = 548.4408760246326
(|^| (M0::[IMPLEMENTATION] *Cells* |+R2|) "RightOutT") = 321.63330627932294
(/ *NetEfficiency* Carnot) = 0.25164113209272887

Update *CrankcaseInitialPressureFactor* to 0.8047615520599961
(StatWorkingMassRelativeAmplitude) = 0.009125931461346302

 AdiabStat }
