
Запуск (rc :filename "C:/stir/sw/m/es/m6/mps-m6-par.lisp" :no-of-circles 7)Запуск (circles 7 :do-plots nil)
;;; Compiling file defun-to-file\VC1.lisp ...
; Loading fasl file c:\stir\sw\m\defun-to-file\VC1.ofasl
;;; Compiling file defun-to-file\dVC1.lisp ...
; Loading fasl file c:\stir\sw\m\defun-to-file\dVC1.ofasl
;;; Compiling file defun-to-file\VC2.lisp ...
; Loading fasl file c:\stir\sw\m\defun-to-file\VC2.ofasl
;;; Compiling file defun-to-file\dVC2.lisp ...
; Loading fasl file c:\stir\sw\m\defun-to-file\dVC2.ofasl
;;; Compiling file defun-to-file\VC.lisp ...
; Loading fasl file c:\stir\sw\m\defun-to-file\VC.ofasl
;;; Compiling file defun-to-file\dVC.lisp ...
; Loading fasl file c:\stir\sw\m\defun-to-file\dVC.ofasl
;;; Compiling file defun-to-file\VdispRod.lisp ...
; Loading fasl file c:\stir\sw\m\defun-to-file\VdispRod.ofasl
;;; Compiling file defun-to-file\dVdispRod.lisp ...
; Loading fasl file c:\stir\sw\m\defun-to-file\dVdispRod.ofasl
;;; Compiling file defun-to-file\VE.lisp ...
; Loading fasl file c:\stir\sw\m\defun-to-file\VE.ofasl
;;; Compiling file defun-to-file\dVE.lisp ...
; Loading fasl file c:\stir\sw\m\defun-to-file\dVE.ofasl
;;; Compiling file defun-to-file\VCrankcase.lisp ...
; Loading fasl file c:\stir\sw\m\defun-to-file\VCrankcase.ofasl
;;; Compiling file defun-to-file\dVCrankcase.lisp ...
; Loading fasl file c:\stir\sw\m\defun-to-file\dVCrankcase.ofasl
Warning: hxNuChannelsInner: формула верна только при условии, что длина/гидр.диаметр = 40
Warning: При расчёте сопротивления канала относительной глубиной более 8 берём данные для глубины 8397ThisControlCriteria = 1664.8493265116024
319ThisControlCriteria = 1976.8649624847022
408ThisControlCriteria = 1884.9624249245472
181ThisControlCriteria = 5186.005879704519
475ThisControlCriteria = 1929.7811230291034
BestControlCriteria = 1664.8493265116024
*Xi1* = 0.0011737708708796802
.378ThisControlCriteria = 664.0099600685135
302ThisControlCriteria = 1448.0902786793943
390ThisControlCriteria = 679.6495385605643
123ThisControlCriteria = 3711.578773202925
416ThisControlCriteria = 749.9688726286421
BestControlCriteria = 664.0099600685135
*Xi1* = 0.0011737708708796802
.232ThisControlCriteria = 470.20483726809585
95ThisControlCriteria = 1328.0408919163029
343BestControlCriteria = 167.65638524792777
*Xi1* = 0.0035213126126390406
.146.144.149.153.158.160.167.172.176.175.174.172.171.169.167.166.165.163.161.160.158.157.156.155.154.152.151.150.149.148.148.148.146.145.146.145.146.145.144.145.145.146.146.145.147.148.148.149.150.151.152.153.154.156.158.159.160.162.163.165.167.168.169.171.173.172.181.175.168.164.160.155.150.146.143.139.135.132.129.127.122.121.118.112.114.111.109.107.105.103.102.100.98.97.95.95.92.91.90.89.88.90.90.91.91.91.92.92.92.92.93.92.93.94.94.94.94.95.95.96.96.96.97.98.99.99.99.100.100.101.101.101.102.102.102.103.103.104.104.105.105.107.106.108.110.111.113.115.116.119.120.118.120.120.123.126.129.131.134.137.140.144.146.148.153.158.160.167.174.176.177.185.190.195.199.203.208.214.218.223.227.232.237.241.245.249.253.256.261.264.267.270.272.271.274.275.277.275.274.273.270.268.265.262.258.254.251.246.241.238.233.227.221.220.215.208.204.200.196.190.188.180.179.167.163.161.157.153.147.147.144.140.137.135.132.130.127.123.*GrossEfficiency* = 0.42977739699280887
*CircleNumber* = 0

Warning: При расчёте сопротивления канала(-ов) в не-ламинарном режиме полагаем отношение длины к гидр. диаметру = 40
Warning: При расчёте сопротивления канала относительно глубиной более 8 берём данные для глубины 8(/ *StatAveragePressure*
                                                                                                     [Bar]) = 22.047360448323527

*StatPowerSimple* = 1961.7625315605476
*NetEfficiency* = 0.29803550480215324
(^ (m0::[implementation] *Cells* |+R1|) "LeftOutT") = 603.0
(^ (m0::[implementation] *Cells* |+R2|) "RightOutT") = 293.0

Update *CrankcaseInitialPressureFactor* to 0.8183436125678644
Warning: hxNuChannelsInner: формула верна только при условии, что длина/гидр.диаметр = 40
Warning: При расчёте сопротивления канала относительной глубиной более 8 берём данные для глубины 8192.138.140.145.149.153.155.162.166.170.176.179.178.174.175.170.171.168.167.165.164.162.161.159.159.157.155.154.153.152.151.150.149.148.147.148.146.146.146.146.145.143.143.144.144.144.145.145.146.147.148.149.150.151.152.154.154.157.158.159.161.162.164.165.167.169.171.171.175.176.174.170.166.161.155.151.147.143.139.136.133.129.127.124.121.119.115.114.111.110.108.106.104.101.100.99.98.95.95.92.91.91.89.88.90.90.91.91.92.90.92.92.91.93.94.92.93.94.94.95.94.95.96.96.97.98.98.99.99.99.100.100.101.101.101.101.102.102.103.104.104.105.105.106.106.107.108.111.111.111.115.117.118.120.116.119.121.123.125.129.130.134.136.138.145.145.150.153.157.160.164.168.176.180.186.190.195.199.202.207.214.217.223.228.233.237.242.246.249.253.257.261.263.268.268.271.273.275.277.277.276.274.275.271.267.265.261.258.254.250.247.242.236.232.226.224.217.215.210.204.200.196.186.187.182.175.169.165.161.158.154.150.146.144.141.137.134.132.129.129.127.*GrossEfficiency* = 0.41787300646577197
*CircleNumber* = 1

Warning: При расчёте сопротивления канала(-ов) в не-ламинарном режиме полагаем отношение длины к гидр. диаметру = 40
Warning: При расчёте сопротивления канала относительно глубиной более 8 берём данные для глубины 8(/ *StatAveragePressure*
                                                                                                     [Bar]) = 22.064881608308667

*StatPowerSimple* = 1965.862297424838
*NetEfficiency* = 0.2950438634921079
(^ (m0::[implementation] *Cells* |+R1|) "LeftOutT") = 596.0271405104497
(^ (m0::[implementation] *Cells* |+R2|) "RightOutT") = 294.99578291265664

Update *CrankcaseInitialPressureFactor* to 0.8192655968533094
Warning: hxNuChannelsInner: формула верна только при условии, что длина/гидр.диаметр = 40
Warning: При расчёте сопротивления канала относительной глубиной более 8 берём данные для глубины 8150.138.141.145.148.153.158.162.166.171.177.179.177.176.173.172.170.169.167.166.164.163.161.159.158.157.155.154.153.152.151.149.150.149.147.148.147.146.146.146.145.144.143.144.144.140.145.145.146.147.147.149.150.151.152.153.154.156.157.160.161.163.163.166.167.169.170.173.174.176.176.170.165.161.156.152.147.144.140.136.133.130.127.124.121.118.117.114.112.110.107.105.104.102.101.98.98.95.94.93.92.90.89.89.89.90.91.91.91.91.91.92.92.91.93.93.93.93.94.95.94.96.96.96.96.97.98.98.98.99.100.101.100.101.101.102.102.102.103.103.104.104.105.106.107.106.108.109.111.113.113.115.118.119.118.120.121.123.125.127.131.134.137.138.141.145.149.153.157.162.166.174.174.181.185.190.195.199.203.207.214.217.222.228.231.237.240.245.249.254.256.261.264.266.268.269.270.274.272.275.276.273.272.270.268.265.261.258.254.250.246.242.237.231.227.223.219.213.208.205.199.194.189.187.182.175.170.164.161.158.152.150.146.143.141.138.134.131.130.127.127.*GrossEfficiency* = 0.40852044117500436
*CircleNumber* = 2

Warning: При расчёте сопротивления канала(-ов) в не-ламинарном режиме полагаем отношение длины к гидр. диаметру = 40
Warning: При расчёте сопротивления канала относительно глубиной более 8 берём данные для глубины 8(/ *StatAveragePressure*
                                                                                                     [Bar]) = 22.048842914914513

*StatPowerSimple* = 1952.0978494743077
*NetEfficiency* = 0.3038230606439476
(^ (m0::[implementation] *Cells* |+R1|) "LeftOutT") = 593.9739277330558
(^ (m0::[implementation] *Cells* |+R2|) "RightOutT") = 296.64389967450007

Update *CrankcaseInitialPressureFactor* to 0.8203383019318139
Warning: hxNuChannelsInner: формула верна только при условии, что длина/гидр.диаметр = 40
Warning: При расчёте сопротивления канала относительной глубиной более 8 берём данные для глубины 8192.138.141.145.149.153.158.162.167.172.177.179.178.176.173.174.171.169.167.165.164.163.161.160.158.157.156.154.153.152.151.150.149.148.148.147.147.146.146.146.145.144.143.144.144.144.145.145.146.147.148.148.150.150.153.153.155.156.158.159.161.162.164.166.167.170.170.173.174.177.176.170.166.161.156.151.147.144.140.136.133.130.127.125.120.119.116.115.111.110.107.106.104.102.100.100.97.96.94.93.92.90.90.89.89.90.90.91.91.91.92.92.92.93.93.92.93.94.94.94.95.95.95.96.95.97.98.99.99.99.100.100.100.101.101.102.102.103.104.103.104.104.105.106.106.107.108.110.112.112.114.116.119.120.118.119.121.123.125.128.130.133.136.137.142.146.149.154.157.160.164.171.178.182.186.190.194.199.202.208.213.219.223.228.233.237.241.245.248.253.256.259.263.266.269.271.272.274.276.276.274.274.272.270.267.265.262.258.254.249.245.241.238.232.228.223.218.214.209.205.199.195.190.185.180.175.172.165.162.155.152.150.145.143.141.138.136.132.130.127.125.*GrossEfficiency* = 0.40449066735826534
*CircleNumber* = 3

Warning: При расчёте сопротивления канала(-ов) в не-ламинарном режиме полагаем отношение длины к гидр. диаметру = 40
Warning: При расчёте сопротивления канала относительно глубиной более 8 берём данные для глубины 8(/ *StatAveragePressure*
                                                                                                     [Bar]) = 22.03008998941264

*StatPowerSimple* = 1944.4807302574712
*NetEfficiency* = 0.3078713799452191
(^ (m0::[implementation] *Cells* |+R1|) "LeftOutT") = 593.1790980751005
(^ (m0::[implementation] *Cells* |+R2|) "RightOutT") = 297.34851987663876

Update *CrankcaseInitialPressureFactor* to 0.8214507556137664
Warning: hxNuChannelsInner: формула верна только при условии, что длина/гидр.диаметр = 40
Warning: При расчёте сопротивления канала относительной глубиной более 8 берём данные для глубины 8152.138.142.145.149.153.158.162.161.172.177.179.177.176.174.172.171.168.168.165.164.162.161.160.158.157.156.154.153.152.151.150.149.149.148.148.146.147.146.145.145.144.143.143.144.144.144.145.146.146.147.148.150.150.151.154.154.156.157.158.160.163.164.165.167.169.171.173.175.177.175.171.165.161.156.152.147.143.140.136.133.130.127.121.121.119.116.114.111.110.108.106.104.102.100.98.97.96.94.94.91.91.90.88.89.90.90.91.92.91.92.92.92.92.92.94.93.93.94.95.94.94.95.96.96.97.98.99.99.99.100.100.101.101.101.101.102.102.103.103.104.105.105.106.107.106.108.110.111.112.114.115.118.120.117.119.120.123.125.129.130.134.136.139.143.146.149.153.157.161.166.173.179.182.186.191.196.198.204.209.213.218.222.222.232.236.241.246.249.253.255.260.263.265.269.269.270.274.277.278.275.274.273.270.268.264.262.256.254.251.246.242.237.233.227.223.218.213.208.204.200.194.191.184.182.177.169.167.160.157.154.150.146.143.140.137.135.132.129.126.126.*GrossEfficiency* = 0.40290597954645463
*CircleNumber* = 4

Warning: При расчёте сопротивления канала(-ов) в не-ламинарном режиме полагаем отношение длины к гидр. диаметру = 40
Warning: При расчёте сопротивления канала относительно глубиной более 8 берём данные для глубины 8(/ *StatAveragePressure*
                                                                                                     [Bar]) = 22.010727493642364

*StatPowerSimple* = 1939.811072766986
*NetEfficiency* = 0.3099021631696629
(^ (m0::[implementation] *Cells* |+R1|) "LeftOutT") = 592.8566478608882
(^ (m0::[implementation] *Cells* |+R2|) "RightOutT") = 297.6529906375145

Update *CrankcaseInitialPressureFactor* to 0.8225623345713221
Warning: hxNuChannelsInner: формула верна только при условии, что длина/гидр.диаметр = 40
Warning: При расчёте сопротивления канала относительной глубиной более 8 берём данные для глубины 8149.138.141.145.150.153.157.163.167.171.178.179.177.176.173.172.170.169.167.165.164.163.159.160.159.157.155.154.153.152.151.150.149.148.146.148.147.146.146.146.145.146.143.143.144.144.144.145.146.147.148.148.150.150.152.153.154.156.157.159.160.162.164.167.167.169.170.172.175.176.176.170.165.160.156.152.147.144.140.136.133.130.127.125.121.118.117.114.113.109.108.105.104.102.101.99.97.96.94.93.93.90.90.89.88.90.91.91.91.91.92.91.93.93.93.93.93.93.95.94.94.95.95.96.96.98.97.98.99.100.100.100.101.101.102.101.102.102.103.103.104.105.105.105.105.106.108.109.112.113.114.116.117.121.118.119.121.123.126.127.131.133.137.140.142.145.148.153.158.162.167.174.174.178.184.190.194.196.205.210.213.217.223.228.232.237.240.246.249.252.256.260.263.266.268.270.271.275.277.276.275.274.273.271.268.265.262.257.254.250.246.242.237.232.229.221.216.213.209.203.200.194.191.182.179.173.170.168.161.156.154.149.147.143.140.137.136.132.128.127.126.*GrossEfficiency* = 0.4022877253309335
*CircleNumber* = 5

Warning: При расчёте сопротивления канала(-ов) в не-ламинарном режиме полагаем отношение длины к гидр. диаметру = 40
Warning: При расчёте сопротивления канала относительно глубиной более 8 берём данные для глубины 8(/ *StatAveragePressure*
                                                                                                     [Bar]) = 21.991447193222055

*StatPowerSimple* = 1936.454722593542
*NetEfficiency* = 0.31088247641863176
(^ (m0::[implementation] *Cells* |+R1|) "LeftOutT") = 592.7278100618524
(^ (m0::[implementation] *Cells* |+R2|) "RightOutT") = 297.783613808442

Update *CrankcaseInitialPressureFactor* to 0.8236558015671293
Warning: hxNuChannelsInner: формула верна только при условии, что длина/гидр.диаметр = 40
Warning: При расчёте сопротивления канала относительной глубиной более 8 берём данные для глубины 8165.139.140.146.150.153.157.162.166.172.177.179.177.176.174.172.170.170.167.160.164.163.160.160.159.156.155.154.153.152.151.151.150.148.146.148.147.146.146.146.145.144.144.143.144.144.145.145.146.147.148.149.149.150.152.153.155.156.157.159.161.163.164.165.167.169.171.172.175.176.176.171.165.161.156.152.147.143.140.136.133.130.127.124.121.119.116.114.112.109.108.106.104.103.101.99.97.96.95.93.91.91.90.89.89.90.91.91.91.91.92.91.92.92.93.94.94.93.94.94.94.95.96.96.96.97.98.98.99.99.99.100.100.101.101.101.102.102.102.103.104.104.104.106.106.108.107.110.112.113.112.116.117.117.116.118.121.124.126.127.131.133.137.140.142.146.149.153.158.160.164.169.174.181.186.190.195.199.204.209.213.218.222.228.232.237.241.239.249.254.256.260.263.266.268.270.270.273.276.274.274.265.273.270.267.265.262.257.253.251.245.242.237.232.228.225.219.214.205.205.199.195.188.187.178.175.169.166.160.156.153.150.147.144.140.138.136.133.130.127.127.*GrossEfficiency* = 0.40200173813117546
;;; Compiling file defun-to-file\VolumeForMaxovik.lisp ...
; Loading fasl file c:\stir\sw\m\defun-to-file\VolumeForMaxovik.ofasl
;;; Compiling file defun-to-file\dVolumeForMaxovik.lisp ...
; Loading fasl file c:\stir\sw\m\defun-to-file\dVolumeForMaxovik.ofasl
*CircleNumber* = 6

(/ regenWallThickness [mm]) = 4.979628338393596
(/ dispWallThickness [mm]) = 0.7
(RegenMatrixHeatConductionLossPower) = ((|+R1| 4.075993729937814)
                                        (|+R2| 3.290780830929322))


{ AdiabStat 
*StatRegen* = #(nil nil
                #S(StatRegenRec :regEffect 0.9912197297047438
                                :regEnthalpyLoss 255.74520741883407
                                :regEntropyCreation 130778.39781256663)
                #S(StatRegenRec :regEffect 0.9917983395674495
                                :regEnthalpyLoss 208.80967588892887
                                :regEntropyCreation 74527.67313284015)
                nil nil nil)

Warning: При расчёте сопротивления канала(-ов) в не-ламинарном режиме полагаем отношение длины к гидр. диаметру = 40
Warning: При расчёте сопротивления канала относительно глубиной более 8 берём данные для глубины 8GasFrictionLoss = 215.00471931479766
StatFlowFriction1 = (0.0
                     7.912845684377404
                     88.89726155924812
                     109.16766777663709
                     8.986287196438104
                     0.04065709809693391
                     0.0)
(CrankcasePumpingLossBuddenPower) = 8.900462254135097
wallLeakage = 89.06870310402663
(ShuttleLossesBudden) = 55.363815052379174
(AppendixPumpingLossBudden) = 99.37713808605325
(RegenMatrixHeatConductionLossPower) = ((|+R1| 4.075993729937814)
                                        (|+R2| 3.290780830929322))
(PistonRingFrictionPower) = 15.59170951708678
(CrossheadFrictionPower) = 20.34284807282596
(BearingFrictionPower) = 63.69097557258734
(StatInertia) = ((maxPistonSpeed) = 2.356194490192345)

dispRodPower = 121.52573115532269
workPower = 2092.412644303694
Comp/exp-work = (-28.843238937627856
                 161.70536120741
                 0.17836909501492856)
(/ (vClearance +e) [cm3]) = 135.8878888330399
(/ (vSwept +e) [cm3]) = 795.185408834471
(/ (vClearance +c) [cm3]) = 55.24992675800278
(/ (vSwept +c) [cm3]) = 783.6603992454883
(/ (TotalDeadVolume) [cm3]) = 12061.260018642357
(phaseAngleForMatlab) = 123.0F0
(/ *StatAveragePressure* [Bar]) = 21.97252692054694
(/ *StatMaximumPressure* *StatMinimumPressure*) = 1.2332028135072189

*StatPowerSimple* = 1933.7077735280284
*GrossEfficiency* = 0.40200173813117546
TotalHeatIn = 6210.689223081545
*NetEfficiency* = 0.31135155923461017
(^ (m0::[implementation] *Cells* |+R1|) "LeftOutT") = 592.6779687522932
(^ (m0::[implementation] *Cells* |+R2|) "RightOutT") = 297.83904397920947
(/ *NetEfficiency* Carnot) = 0.6056290007047417

Update *CrankcaseInitialPressureFactor* to 0.8247234130777343
(StatWorkingMassRelativeAmplitude) = 6.223424551781407E-4

 AdiabStat }
